%YAML 1.1
%TAG !u! tag:unity3d.com,2011:
--- !u!1045 &1
EditorBuildSettings:
  m_ObjectHideFlags: 0
  serializedVersion: 2
  m_Scenes:
  - enabled: 1
    path: Assets/Scenes/-Games (Scenes)/Infinite Bullet Hell (Scenes)/Game.unity
    guid: ae924f17dbb0232478161926ad19a02d
  - enabled: 0
    path: Assets/Scenes/-Games (Scenes)/Parkour Game (Scenes)/Game.unity
    guid: a2a559930821a034cb9c201d50a74e13
  - enabled: 0
    path: Assets/Scenes/-Games (Scenes)/Archer Game (Scenes)/Init.unity
    guid: b8733a8ed032431e7900e3d2ca8e65e0
  - enabled: 0
    path: Assets/Scenes/-Games (Scenes)/Archer Game (Scenes)/Game.unity
    guid: 88d39ac8e2c3b6c6a9ca597871116363
  - enabled: 0
    path: Assets/Scenes/-Games (Scenes)/Archer Game (Scenes)/World Map.unity
    guid: c7102d0ec29b718f8825a7124e43be51
  - enabled: 0
    path: Assets/Scenes/-Games (Scenes)/Rotation Game (Scenes)/Game.unity
    guid: c3ecdd2120ab0ec25afac4fa15530b6d
  - enabled: 0
    path: Assets/Scenes/-Games (Scenes)/Archer Game (Scenes)/AI.unity
    guid: 9bd3662737173575f8c377fef34251ae
  m_configObjects:
    com.unity.input.settings: {fileID: 11400000, guid: 83f636f2dd3f9d841ad7c36d711d9cd1,
      type: 2}
