%YAML 1.1
%TAG !u! tag:unity3d.com,2011:
--- !u!1001 &724312148764994829
PrefabInstance:
  m_ObjectHideFlags: 0
  serializedVersion: 2
  m_Modification:
    m_TransformParent: {fileID: 7243973042387460350}
    m_Modifications:
    - target: {fileID: 1957654393695578553, guid: 19ca3b7e735975cdda1d4b8119cf3d0e,
        type: 3}
      propertyPath: m_Enabled
      value: 0
      objectReference: {fileID: 0}
    - target: {fileID: 3667741488915099835, guid: 19ca3b7e735975cdda1d4b8119cf3d0e,
        type: 3}
      propertyPath: m_Name
      value: Wall (12)
      objectReference: {fileID: 0}
    - target: {fileID: 3667741488915099835, guid: 19ca3b7e735975cdda1d4b8119cf3d0e,
        type: 3}
      propertyPath: m_Layer
      value: 3
      objectReference: {fileID: 0}
    - target: {fileID: 3667741488915099836, guid: 19ca3b7e735975cdda1d4b8119cf3d0e,
        type: 3}
      propertyPath: m_RootOrder
      value: 20
      objectReference: {fileID: 0}
    - target: {fileID: 3667741488915099836, guid: 19ca3b7e735975cdda1d4b8119cf3d0e,
        type: 3}
      propertyPath: m_LocalPosition.x
      value: -6
      objectReference: {fileID: 0}
    - target: {fileID: 3667741488915099836, guid: 19ca3b7e735975cdda1d4b8119cf3d0e,
        type: 3}
      propertyPath: m_LocalPosition.y
      value: -6
      objectReference: {fileID: 0}
    - target: {fileID: 3667741488915099836, guid: 19ca3b7e735975cdda1d4b8119cf3d0e,
        type: 3}
      propertyPath: m_LocalPosition.z
      value: 0
      objectReference: {fileID: 0}
    - target: {fileID: 3667741488915099836, guid: 19ca3b7e735975cdda1d4b8119cf3d0e,
        type: 3}
      propertyPath: m_LocalRotation.w
      value: 1
      objectReference: {fileID: 0}
    - target: {fileID: 3667741488915099836, guid: 19ca3b7e735975cdda1d4b8119cf3d0e,
        type: 3}
      propertyPath: m_LocalRotation.x
      value: -0
      objectReference: {fileID: 0}
    - target: {fileID: 3667741488915099836, guid: 19ca3b7e735975cdda1d4b8119cf3d0e,
        type: 3}
      propertyPath: m_LocalRotation.y
      value: -0
      objectReference: {fileID: 0}
    - target: {fileID: 3667741488915099836, guid: 19ca3b7e735975cdda1d4b8119cf3d0e,
        type: 3}
      propertyPath: m_LocalRotation.z
      value: -0
      objectReference: {fileID: 0}
    - target: {fileID: 3667741488915099836, guid: 19ca3b7e735975cdda1d4b8119cf3d0e,
        type: 3}
      propertyPath: m_LocalEulerAnglesHint.x
      value: 0
      objectReference: {fileID: 0}
    - target: {fileID: 3667741488915099836, guid: 19ca3b7e735975cdda1d4b8119cf3d0e,
        type: 3}
      propertyPath: m_LocalEulerAnglesHint.y
      value: 0
      objectReference: {fileID: 0}
    - target: {fileID: 3667741488915099836, guid: 19ca3b7e735975cdda1d4b8119cf3d0e,
        type: 3}
      propertyPath: m_LocalEulerAnglesHint.z
      value: 0
      objectReference: {fileID: 0}
    - target: {fileID: 5086125213564951401, guid: 19ca3b7e735975cdda1d4b8119cf3d0e,
        type: 3}
      propertyPath: m_Positions.Array.size
      value: 3
      objectReference: {fileID: 0}
    - target: {fileID: 5086125213564951401, guid: 19ca3b7e735975cdda1d4b8119cf3d0e,
        type: 3}
      propertyPath: m_Positions.Array.data[0].x
      value: 1
      objectReference: {fileID: 0}
    - target: {fileID: 5086125213564951401, guid: 19ca3b7e735975cdda1d4b8119cf3d0e,
        type: 3}
      propertyPath: m_Positions.Array.data[0].y
      value: 13
      objectReference: {fileID: 0}
    - target: {fileID: 5086125213564951401, guid: 19ca3b7e735975cdda1d4b8119cf3d0e,
        type: 3}
      propertyPath: m_Positions.Array.data[1].x
      value: 1
      objectReference: {fileID: 0}
    - target: {fileID: 5086125213564951401, guid: 19ca3b7e735975cdda1d4b8119cf3d0e,
        type: 3}
      propertyPath: m_Positions.Array.data[1].y
      value: 6
      objectReference: {fileID: 0}
    - target: {fileID: 5086125213564951401, guid: 19ca3b7e735975cdda1d4b8119cf3d0e,
        type: 3}
      propertyPath: m_Positions.Array.data[2].x
      value: 6
      objectReference: {fileID: 0}
    - target: {fileID: 5086125213564951401, guid: 19ca3b7e735975cdda1d4b8119cf3d0e,
        type: 3}
      propertyPath: m_Positions.Array.data[2].y
      value: 1
      objectReference: {fileID: 0}
    - target: {fileID: 5086125213564951401, guid: 19ca3b7e735975cdda1d4b8119cf3d0e,
        type: 3}
      propertyPath: m_Positions.Array.data[3].x
      value: -5
      objectReference: {fileID: 0}
    - target: {fileID: 5086125213564951401, guid: 19ca3b7e735975cdda1d4b8119cf3d0e,
        type: 3}
      propertyPath: m_Positions.Array.data[3].y
      value: 5
      objectReference: {fileID: 0}
    - target: {fileID: 6015189125723896479, guid: 19ca3b7e735975cdda1d4b8119cf3d0e,
        type: 3}
      propertyPath: m_Points.Array.size
      value: 3
      objectReference: {fileID: 0}
    - target: {fileID: 6015189125723896479, guid: 19ca3b7e735975cdda1d4b8119cf3d0e,
        type: 3}
      propertyPath: m_Points.Array.data[0].x
      value: 1
      objectReference: {fileID: 0}
    - target: {fileID: 6015189125723896479, guid: 19ca3b7e735975cdda1d4b8119cf3d0e,
        type: 3}
      propertyPath: m_Points.Array.data[0].y
      value: 13
      objectReference: {fileID: 0}
    - target: {fileID: 6015189125723896479, guid: 19ca3b7e735975cdda1d4b8119cf3d0e,
        type: 3}
      propertyPath: m_Points.Array.data[1].x
      value: 1
      objectReference: {fileID: 0}
    - target: {fileID: 6015189125723896479, guid: 19ca3b7e735975cdda1d4b8119cf3d0e,
        type: 3}
      propertyPath: m_Points.Array.data[1].y
      value: 6
      objectReference: {fileID: 0}
    - target: {fileID: 6015189125723896479, guid: 19ca3b7e735975cdda1d4b8119cf3d0e,
        type: 3}
      propertyPath: m_Points.Array.data[2].x
      value: 6
      objectReference: {fileID: 0}
    - target: {fileID: 6015189125723896479, guid: 19ca3b7e735975cdda1d4b8119cf3d0e,
        type: 3}
      propertyPath: m_Points.Array.data[2].y
      value: 1
      objectReference: {fileID: 0}
    - target: {fileID: 6015189125723896479, guid: 19ca3b7e735975cdda1d4b8119cf3d0e,
        type: 3}
      propertyPath: m_Points.Array.data[3].x
      value: -5
      objectReference: {fileID: 0}
    - target: {fileID: 6015189125723896479, guid: 19ca3b7e735975cdda1d4b8119cf3d0e,
        type: 3}
      propertyPath: m_Points.Array.data[3].y
      value: 5
      objectReference: {fileID: 0}
    - target: {fileID: 6615061408571887646, guid: 19ca3b7e735975cdda1d4b8119cf3d0e,
        type: 3}
      propertyPath: m_Positions.Array.size
      value: 3
      objectReference: {fileID: 0}
    - target: {fileID: 6615061408571887646, guid: 19ca3b7e735975cdda1d4b8119cf3d0e,
        type: 3}
      propertyPath: m_Positions.Array.data[0].x
      value: 1
      objectReference: {fileID: 0}
    - target: {fileID: 6615061408571887646, guid: 19ca3b7e735975cdda1d4b8119cf3d0e,
        type: 3}
      propertyPath: m_Positions.Array.data[0].y
      value: 13
      objectReference: {fileID: 0}
    - target: {fileID: 6615061408571887646, guid: 19ca3b7e735975cdda1d4b8119cf3d0e,
        type: 3}
      propertyPath: m_Positions.Array.data[1].y
      value: 6
      objectReference: {fileID: 0}
    - target: {fileID: 6615061408571887646, guid: 19ca3b7e735975cdda1d4b8119cf3d0e,
        type: 3}
      propertyPath: m_Positions.Array.data[2].x
      value: 6
      objectReference: {fileID: 0}
    - target: {fileID: 6615061408571887646, guid: 19ca3b7e735975cdda1d4b8119cf3d0e,
        type: 3}
      propertyPath: m_Positions.Array.data[2].y
      value: 1
      objectReference: {fileID: 0}
    - target: {fileID: 6615061408571887646, guid: 19ca3b7e735975cdda1d4b8119cf3d0e,
        type: 3}
      propertyPath: m_Parameters.widthMultiplier
      value: 0.45
      objectReference: {fileID: 0}
    m_RemovedComponents: []
  m_SourcePrefab: {fileID: 100100000, guid: 19ca3b7e735975cdda1d4b8119cf3d0e, type: 3}
--- !u!1001 &2608568456385375012
PrefabInstance:
  m_ObjectHideFlags: 0
  serializedVersion: 2
  m_Modification:
    m_TransformParent: {fileID: 0}
    m_Modifications:
    - target: {fileID: 1140692715832806338, guid: 2387e8645b166f8ed8667bd97c5884e8,
        type: 3}
      propertyPath: m_IsActive
      value: 0
      objectReference: {fileID: 0}
    - target: {fileID: 1245428712510441472, guid: 2387e8645b166f8ed8667bd97c5884e8,
        type: 3}
      propertyPath: m_Parameters.widthMultiplier
      value: 0.45
      objectReference: {fileID: 0}
    - target: {fileID: 1462950160237482432, guid: 2387e8645b166f8ed8667bd97c5884e8,
        type: 3}
      propertyPath: m_Layer
      value: 3
      objectReference: {fileID: 0}
    - target: {fileID: 1556947441011673850, guid: 2387e8645b166f8ed8667bd97c5884e8,
        type: 3}
      propertyPath: m_Parameters.widthMultiplier
      value: 0.45
      objectReference: {fileID: 0}
    - target: {fileID: 1736123264939936930, guid: 2387e8645b166f8ed8667bd97c5884e8,
        type: 3}
      propertyPath: m_Layer
      value: 3
      objectReference: {fileID: 0}
    - target: {fileID: 1941510174549077317, guid: 2387e8645b166f8ed8667bd97c5884e8,
        type: 3}
      propertyPath: m_Parameters.widthMultiplier
      value: 0.45
      objectReference: {fileID: 0}
    - target: {fileID: 2079734139747871836, guid: 2387e8645b166f8ed8667bd97c5884e8,
        type: 3}
      propertyPath: m_Layer
      value: 3
      objectReference: {fileID: 0}
    - target: {fileID: 2526969916566816347, guid: 2387e8645b166f8ed8667bd97c5884e8,
        type: 3}
      propertyPath: m_Parameters.widthMultiplier
      value: 0.45
      objectReference: {fileID: 0}
    - target: {fileID: 2539735733252567772, guid: 2387e8645b166f8ed8667bd97c5884e8,
        type: 3}
      propertyPath: m_Layer
      value: 3
      objectReference: {fileID: 0}
    - target: {fileID: 2558300103033734317, guid: 2387e8645b166f8ed8667bd97c5884e8,
        type: 3}
      propertyPath: m_Parameters.widthMultiplier
      value: 0.45
      objectReference: {fileID: 0}
    - target: {fileID: 2568298602107228853, guid: 2387e8645b166f8ed8667bd97c5884e8,
        type: 3}
      propertyPath: m_Layer
      value: 3
      objectReference: {fileID: 0}
    - target: {fileID: 2568298602107228853, guid: 2387e8645b166f8ed8667bd97c5884e8,
        type: 3}
      propertyPath: m_IsActive
      value: 0
      objectReference: {fileID: 0}
    - target: {fileID: 2679291223678358182, guid: 2387e8645b166f8ed8667bd97c5884e8,
        type: 3}
      propertyPath: m_Layer
      value: 3
      objectReference: {fileID: 0}
    - target: {fileID: 2679291223678358182, guid: 2387e8645b166f8ed8667bd97c5884e8,
        type: 3}
      propertyPath: m_IsActive
      value: 1
      objectReference: {fileID: 0}
    - target: {fileID: 2819863050064656271, guid: 2387e8645b166f8ed8667bd97c5884e8,
        type: 3}
      propertyPath: m_Layer
      value: 3
      objectReference: {fileID: 0}
    - target: {fileID: 2819863050064656271, guid: 2387e8645b166f8ed8667bd97c5884e8,
        type: 3}
      propertyPath: m_IsActive
      value: 0
      objectReference: {fileID: 0}
    - target: {fileID: 2998962466544237340, guid: 2387e8645b166f8ed8667bd97c5884e8,
        type: 3}
      propertyPath: m_Layer
      value: 3
      objectReference: {fileID: 0}
    - target: {fileID: 3201338804388777327, guid: 2387e8645b166f8ed8667bd97c5884e8,
        type: 3}
      propertyPath: exits.Array.size
      value: 2
      objectReference: {fileID: 0}
    - target: {fileID: 3201338804388777327, guid: 2387e8645b166f8ed8667bd97c5884e8,
        type: 3}
      propertyPath: bounds.m_Center.x
      value: 0
      objectReference: {fileID: 0}
    - target: {fileID: 3201338804388777327, guid: 2387e8645b166f8ed8667bd97c5884e8,
        type: 3}
      propertyPath: bounds.m_Center.y
      value: 0
      objectReference: {fileID: 0}
    - target: {fileID: 3201338804388777327, guid: 2387e8645b166f8ed8667bd97c5884e8,
        type: 3}
      propertyPath: bounds.m_Extent.x
      value: 10.1
      objectReference: {fileID: 0}
    - target: {fileID: 3201338804388777327, guid: 2387e8645b166f8ed8667bd97c5884e8,
        type: 3}
      propertyPath: bounds.m_Extent.y
      value: 10.1
      objectReference: {fileID: 0}
    - target: {fileID: 3201338804388777327, guid: 2387e8645b166f8ed8667bd97c5884e8,
        type: 3}
      propertyPath: bounds.m_Extent.z
      value: 0.1
      objectReference: {fileID: 0}
    - target: {fileID: 3201338804388777327, guid: 2387e8645b166f8ed8667bd97c5884e8,
        type: 3}
      propertyPath: exits.Array.data[0]
      value: 
      objectReference: {fileID: 985456305218687039}
    - target: {fileID: 3201338804388777327, guid: 2387e8645b166f8ed8667bd97c5884e8,
        type: 3}
      propertyPath: exits.Array.data[1]
      value: 
      objectReference: {fileID: 4333744706902747009}
    - target: {fileID: 3201338804388777327, guid: 2387e8645b166f8ed8667bd97c5884e8,
        type: 3}
      propertyPath: exits.Array.data[2]
      value: 
      objectReference: {fileID: 0}
    - target: {fileID: 3367196620426126273, guid: 2387e8645b166f8ed8667bd97c5884e8,
        type: 3}
      propertyPath: m_IsActive
      value: 0
      objectReference: {fileID: 0}
    - target: {fileID: 3638677278794341709, guid: 2387e8645b166f8ed8667bd97c5884e8,
        type: 3}
      propertyPath: m_Parameters.widthMultiplier
      value: 0.45
      objectReference: {fileID: 0}
    - target: {fileID: 4662558405580360666, guid: 2387e8645b166f8ed8667bd97c5884e8,
        type: 3}
      propertyPath: m_RootOrder
      value: 0
      objectReference: {fileID: 0}
    - target: {fileID: 4662558405580360666, guid: 2387e8645b166f8ed8667bd97c5884e8,
        type: 3}
      propertyPath: m_LocalPosition.x
      value: 0
      objectReference: {fileID: 0}
    - target: {fileID: 4662558405580360666, guid: 2387e8645b166f8ed8667bd97c5884e8,
        type: 3}
      propertyPath: m_LocalPosition.y
      value: 0
      objectReference: {fileID: 0}
    - target: {fileID: 4662558405580360666, guid: 2387e8645b166f8ed8667bd97c5884e8,
        type: 3}
      propertyPath: m_LocalPosition.z
      value: 0
      objectReference: {fileID: 0}
    - target: {fileID: 4662558405580360666, guid: 2387e8645b166f8ed8667bd97c5884e8,
        type: 3}
      propertyPath: m_LocalRotation.w
      value: 1
      objectReference: {fileID: 0}
    - target: {fileID: 4662558405580360666, guid: 2387e8645b166f8ed8667bd97c5884e8,
        type: 3}
      propertyPath: m_LocalRotation.x
      value: -0
      objectReference: {fileID: 0}
    - target: {fileID: 4662558405580360666, guid: 2387e8645b166f8ed8667bd97c5884e8,
        type: 3}
      propertyPath: m_LocalRotation.y
      value: -0
      objectReference: {fileID: 0}
    - target: {fileID: 4662558405580360666, guid: 2387e8645b166f8ed8667bd97c5884e8,
        type: 3}
      propertyPath: m_LocalRotation.z
      value: -0
      objectReference: {fileID: 0}
    - target: {fileID: 4662558405580360666, guid: 2387e8645b166f8ed8667bd97c5884e8,
        type: 3}
      propertyPath: m_LocalEulerAnglesHint.x
      value: 0
      objectReference: {fileID: 0}
    - target: {fileID: 4662558405580360666, guid: 2387e8645b166f8ed8667bd97c5884e8,
        type: 3}
      propertyPath: m_LocalEulerAnglesHint.y
      value: 0
      objectReference: {fileID: 0}
    - target: {fileID: 4662558405580360666, guid: 2387e8645b166f8ed8667bd97c5884e8,
        type: 3}
      propertyPath: m_LocalEulerAnglesHint.z
      value: 0
      objectReference: {fileID: 0}
    - target: {fileID: 4662558405580360669, guid: 2387e8645b166f8ed8667bd97c5884e8,
        type: 3}
      propertyPath: m_Name
      value: Room 3
      objectReference: {fileID: 0}
    - target: {fileID: 4662756441318529977, guid: 2387e8645b166f8ed8667bd97c5884e8,
        type: 3}
      propertyPath: m_Parameters.widthMultiplier
      value: 0.45
      objectReference: {fileID: 0}
    - target: {fileID: 5124320773647969313, guid: 2387e8645b166f8ed8667bd97c5884e8,
        type: 3}
      propertyPath: m_LocalPosition.x
      value: 8
      objectReference: {fileID: 0}
    - target: {fileID: 5124320773647969313, guid: 2387e8645b166f8ed8667bd97c5884e8,
        type: 3}
      propertyPath: m_LocalPosition.y
      value: -8
      objectReference: {fileID: 0}
    - target: {fileID: 5157091350394995556, guid: 2387e8645b166f8ed8667bd97c5884e8,
        type: 3}
      propertyPath: m_Parameters.widthMultiplier
      value: 0.45
      objectReference: {fileID: 0}
    - target: {fileID: 5338436882479911545, guid: 2387e8645b166f8ed8667bd97c5884e8,
        type: 3}
      propertyPath: m_Parameters.widthMultiplier
      value: 0.45
      objectReference: {fileID: 0}
    - target: {fileID: 5348761222323758846, guid: 2387e8645b166f8ed8667bd97c5884e8,
        type: 3}
      propertyPath: m_Layer
      value: 3
      objectReference: {fileID: 0}
    - target: {fileID: 5372629182022316560, guid: 2387e8645b166f8ed8667bd97c5884e8,
        type: 3}
      propertyPath: m_Parameters.widthMultiplier
      value: 0.45
      objectReference: {fileID: 0}
    - target: {fileID: 5380654066848654344, guid: 2387e8645b166f8ed8667bd97c5884e8,
        type: 3}
      propertyPath: m_Layer
      value: 3
      objectReference: {fileID: 0}
    - target: {fileID: 5478001203583791619, guid: 2387e8645b166f8ed8667bd97c5884e8,
        type: 3}
      propertyPath: m_Parameters.widthMultiplier
      value: 0.45
      objectReference: {fileID: 0}
    - target: {fileID: 5623077007517013802, guid: 2387e8645b166f8ed8667bd97c5884e8,
        type: 3}
      propertyPath: m_Parameters.widthMultiplier
      value: 0.45
      objectReference: {fileID: 0}
    - target: {fileID: 6580930631687994856, guid: 2387e8645b166f8ed8667bd97c5884e8,
        type: 3}
      propertyPath: m_Layer
      value: 3
      objectReference: {fileID: 0}
    - target: {fileID: 7421802190986718055, guid: 2387e8645b166f8ed8667bd97c5884e8,
        type: 3}
      propertyPath: m_Parameters.widthMultiplier
      value: 0.45
      objectReference: {fileID: 0}
    - target: {fileID: 8159668029020761095, guid: 2387e8645b166f8ed8667bd97c5884e8,
        type: 3}
      propertyPath: m_Parameters.widthMultiplier
      value: 0.45
      objectReference: {fileID: 0}
    - target: {fileID: 8348166319876623840, guid: 2387e8645b166f8ed8667bd97c5884e8,
        type: 3}
      propertyPath: m_Layer
      value: 3
      objectReference: {fileID: 0}
    - target: {fileID: 8348166319876623840, guid: 2387e8645b166f8ed8667bd97c5884e8,
        type: 3}
      propertyPath: m_IsActive
      value: 1
      objectReference: {fileID: 0}
    - target: {fileID: 8500464102861245689, guid: 2387e8645b166f8ed8667bd97c5884e8,
        type: 3}
      propertyPath: m_Parameters.widthMultiplier
      value: 0.45
      objectReference: {fileID: 0}
    - target: {fileID: 8674956453782251685, guid: 2387e8645b166f8ed8667bd97c5884e8,
        type: 3}
      propertyPath: m_Layer
      value: 3
      objectReference: {fileID: 0}
    - target: {fileID: 8984794836420389471, guid: 2387e8645b166f8ed8667bd97c5884e8,
        type: 3}
      propertyPath: m_Layer
      value: 3
      objectReference: {fileID: 0}
    - target: {fileID: 9036038712427016549, guid: 2387e8645b166f8ed8667bd97c5884e8,
        type: 3}
      propertyPath: m_Parameters.widthMultiplier
      value: 0.45
      objectReference: {fileID: 0}
    m_RemovedComponents: []
  m_SourcePrefab: {fileID: 100100000, guid: 2387e8645b166f8ed8667bd97c5884e8, type: 3}
--- !u!4 &7243973042387460350 stripped
Transform:
  m_CorrespondingSourceObject: {fileID: 4662558405580360666, guid: 2387e8645b166f8ed8667bd97c5884e8,
    type: 3}
  m_PrefabInstance: {fileID: 2608568456385375012}
  m_PrefabAsset: {fileID: 0}
--- !u!4 &985456305218687039 stripped
Transform:
  m_CorrespondingSourceObject: {fileID: 2998962466544237339, guid: 2387e8645b166f8ed8667bd97c5884e8,
    type: 3}
  m_PrefabInstance: {fileID: 2608568456385375012}
  m_PrefabAsset: {fileID: 0}
--- !u!4 &4333744706902747009 stripped
Transform:
  m_CorrespondingSourceObject: {fileID: 1736123264939936933, guid: 2387e8645b166f8ed8667bd97c5884e8,
    type: 3}
  m_PrefabInstance: {fileID: 2608568456385375012}
  m_PrefabAsset: {fileID: 0}
--- !u!1001 &3283881435969057207
PrefabInstance:
  m_ObjectHideFlags: 0
  serializedVersion: 2
  m_Modification:
    m_TransformParent: {fileID: 7243973042387460350}
    m_Modifications:
    - target: {fileID: 1957654393695578553, guid: 19ca3b7e735975cdda1d4b8119cf3d0e,
        type: 3}
      propertyPath: m_Enabled
      value: 0
      objectReference: {fileID: 0}
    - target: {fileID: 3667741488915099835, guid: 19ca3b7e735975cdda1d4b8119cf3d0e,
        type: 3}
      propertyPath: m_Name
      value: Wall (15)
      objectReference: {fileID: 0}
    - target: {fileID: 3667741488915099835, guid: 19ca3b7e735975cdda1d4b8119cf3d0e,
        type: 3}
      propertyPath: m_Layer
      value: 3
      objectReference: {fileID: 0}
    - target: {fileID: 3667741488915099836, guid: 19ca3b7e735975cdda1d4b8119cf3d0e,
        type: 3}
      propertyPath: m_RootOrder
      value: 23
      objectReference: {fileID: 0}
    - target: {fileID: 3667741488915099836, guid: 19ca3b7e735975cdda1d4b8119cf3d0e,
        type: 3}
      propertyPath: m_LocalPosition.x
      value: 10
      objectReference: {fileID: 0}
    - target: {fileID: 3667741488915099836, guid: 19ca3b7e735975cdda1d4b8119cf3d0e,
        type: 3}
      propertyPath: m_LocalPosition.y
      value: 10
      objectReference: {fileID: 0}
    - target: {fileID: 3667741488915099836, guid: 19ca3b7e735975cdda1d4b8119cf3d0e,
        type: 3}
      propertyPath: m_LocalPosition.z
      value: 0
      objectReference: {fileID: 0}
    - target: {fileID: 3667741488915099836, guid: 19ca3b7e735975cdda1d4b8119cf3d0e,
        type: 3}
      propertyPath: m_LocalRotation.w
      value: 1
      objectReference: {fileID: 0}
    - target: {fileID: 3667741488915099836, guid: 19ca3b7e735975cdda1d4b8119cf3d0e,
        type: 3}
      propertyPath: m_LocalRotation.x
      value: -0
      objectReference: {fileID: 0}
    - target: {fileID: 3667741488915099836, guid: 19ca3b7e735975cdda1d4b8119cf3d0e,
        type: 3}
      propertyPath: m_LocalRotation.y
      value: -0
      objectReference: {fileID: 0}
    - target: {fileID: 3667741488915099836, guid: 19ca3b7e735975cdda1d4b8119cf3d0e,
        type: 3}
      propertyPath: m_LocalRotation.z
      value: -0
      objectReference: {fileID: 0}
    - target: {fileID: 3667741488915099836, guid: 19ca3b7e735975cdda1d4b8119cf3d0e,
        type: 3}
      propertyPath: m_LocalEulerAnglesHint.x
      value: 0
      objectReference: {fileID: 0}
    - target: {fileID: 3667741488915099836, guid: 19ca3b7e735975cdda1d4b8119cf3d0e,
        type: 3}
      propertyPath: m_LocalEulerAnglesHint.y
      value: 0
      objectReference: {fileID: 0}
    - target: {fileID: 3667741488915099836, guid: 19ca3b7e735975cdda1d4b8119cf3d0e,
        type: 3}
      propertyPath: m_LocalEulerAnglesHint.z
      value: 0
      objectReference: {fileID: 0}
    - target: {fileID: 5086125213564951401, guid: 19ca3b7e735975cdda1d4b8119cf3d0e,
        type: 3}
      propertyPath: m_Positions.Array.size
      value: 2
      objectReference: {fileID: 0}
    - target: {fileID: 5086125213564951401, guid: 19ca3b7e735975cdda1d4b8119cf3d0e,
        type: 3}
      propertyPath: m_Positions.Array.data[0].x
      value: 0
      objectReference: {fileID: 0}
    - target: {fileID: 5086125213564951401, guid: 19ca3b7e735975cdda1d4b8119cf3d0e,
        type: 3}
      propertyPath: m_Positions.Array.data[0].y
      value: 0
      objectReference: {fileID: 0}
    - target: {fileID: 5086125213564951401, guid: 19ca3b7e735975cdda1d4b8119cf3d0e,
        type: 3}
      propertyPath: m_Positions.Array.data[1].x
      value: -4
      objectReference: {fileID: 0}
    - target: {fileID: 5086125213564951401, guid: 19ca3b7e735975cdda1d4b8119cf3d0e,
        type: 3}
      propertyPath: m_Positions.Array.data[1].y
      value: -4
      objectReference: {fileID: 0}
    - target: {fileID: 5086125213564951401, guid: 19ca3b7e735975cdda1d4b8119cf3d0e,
        type: 3}
      propertyPath: m_Positions.Array.data[2].x
      value: -5
      objectReference: {fileID: 0}
    - target: {fileID: 5086125213564951401, guid: 19ca3b7e735975cdda1d4b8119cf3d0e,
        type: 3}
      propertyPath: m_Positions.Array.data[2].y
      value: -1
      objectReference: {fileID: 0}
    - target: {fileID: 5086125213564951401, guid: 19ca3b7e735975cdda1d4b8119cf3d0e,
        type: 3}
      propertyPath: m_Positions.Array.data[3].x
      value: -5
      objectReference: {fileID: 0}
    - target: {fileID: 5086125213564951401, guid: 19ca3b7e735975cdda1d4b8119cf3d0e,
        type: 3}
      propertyPath: m_Positions.Array.data[3].y
      value: 5
      objectReference: {fileID: 0}
    - target: {fileID: 6015189125723896479, guid: 19ca3b7e735975cdda1d4b8119cf3d0e,
        type: 3}
      propertyPath: m_Points.Array.size
      value: 2
      objectReference: {fileID: 0}
    - target: {fileID: 6015189125723896479, guid: 19ca3b7e735975cdda1d4b8119cf3d0e,
        type: 3}
      propertyPath: m_Points.Array.data[0].x
      value: 0
      objectReference: {fileID: 0}
    - target: {fileID: 6015189125723896479, guid: 19ca3b7e735975cdda1d4b8119cf3d0e,
        type: 3}
      propertyPath: m_Points.Array.data[0].y
      value: 0
      objectReference: {fileID: 0}
    - target: {fileID: 6015189125723896479, guid: 19ca3b7e735975cdda1d4b8119cf3d0e,
        type: 3}
      propertyPath: m_Points.Array.data[1].x
      value: -4
      objectReference: {fileID: 0}
    - target: {fileID: 6015189125723896479, guid: 19ca3b7e735975cdda1d4b8119cf3d0e,
        type: 3}
      propertyPath: m_Points.Array.data[1].y
      value: -4
      objectReference: {fileID: 0}
    - target: {fileID: 6015189125723896479, guid: 19ca3b7e735975cdda1d4b8119cf3d0e,
        type: 3}
      propertyPath: m_Points.Array.data[2].x
      value: -5
      objectReference: {fileID: 0}
    - target: {fileID: 6015189125723896479, guid: 19ca3b7e735975cdda1d4b8119cf3d0e,
        type: 3}
      propertyPath: m_Points.Array.data[2].y
      value: -1
      objectReference: {fileID: 0}
    - target: {fileID: 6015189125723896479, guid: 19ca3b7e735975cdda1d4b8119cf3d0e,
        type: 3}
      propertyPath: m_Points.Array.data[3].x
      value: -5
      objectReference: {fileID: 0}
    - target: {fileID: 6015189125723896479, guid: 19ca3b7e735975cdda1d4b8119cf3d0e,
        type: 3}
      propertyPath: m_Points.Array.data[3].y
      value: 5
      objectReference: {fileID: 0}
    - target: {fileID: 6615061408571887646, guid: 19ca3b7e735975cdda1d4b8119cf3d0e,
        type: 3}
      propertyPath: m_Positions.Array.data[0].x
      value: 0
      objectReference: {fileID: 0}
    - target: {fileID: 6615061408571887646, guid: 19ca3b7e735975cdda1d4b8119cf3d0e,
        type: 3}
      propertyPath: m_Positions.Array.data[0].y
      value: 0
      objectReference: {fileID: 0}
    - target: {fileID: 6615061408571887646, guid: 19ca3b7e735975cdda1d4b8119cf3d0e,
        type: 3}
      propertyPath: m_Positions.Array.data[1].x
      value: -4
      objectReference: {fileID: 0}
    - target: {fileID: 6615061408571887646, guid: 19ca3b7e735975cdda1d4b8119cf3d0e,
        type: 3}
      propertyPath: m_Positions.Array.data[1].y
      value: -4
      objectReference: {fileID: 0}
    - target: {fileID: 6615061408571887646, guid: 19ca3b7e735975cdda1d4b8119cf3d0e,
        type: 3}
      propertyPath: m_Parameters.widthMultiplier
      value: 0.45
      objectReference: {fileID: 0}
    m_RemovedComponents: []
  m_SourcePrefab: {fileID: 100100000, guid: 19ca3b7e735975cdda1d4b8119cf3d0e, type: 3}
--- !u!1001 &6165343364230193825
PrefabInstance:
  m_ObjectHideFlags: 0
  serializedVersion: 2
  m_Modification:
    m_TransformParent: {fileID: 7243973042387460350}
    m_Modifications:
    - target: {fileID: 1957654393695578553, guid: 19ca3b7e735975cdda1d4b8119cf3d0e,
        type: 3}
      propertyPath: m_Enabled
      value: 0
      objectReference: {fileID: 0}
    - target: {fileID: 3667741488915099835, guid: 19ca3b7e735975cdda1d4b8119cf3d0e,
        type: 3}
      propertyPath: m_Name
      value: Wall (13)
      objectReference: {fileID: 0}
    - target: {fileID: 3667741488915099835, guid: 19ca3b7e735975cdda1d4b8119cf3d0e,
        type: 3}
      propertyPath: m_Layer
      value: 3
      objectReference: {fileID: 0}
    - target: {fileID: 3667741488915099836, guid: 19ca3b7e735975cdda1d4b8119cf3d0e,
        type: 3}
      propertyPath: m_RootOrder
      value: 21
      objectReference: {fileID: 0}
    - target: {fileID: 3667741488915099836, guid: 19ca3b7e735975cdda1d4b8119cf3d0e,
        type: 3}
      propertyPath: m_LocalPosition.x
      value: -7
      objectReference: {fileID: 0}
    - target: {fileID: 3667741488915099836, guid: 19ca3b7e735975cdda1d4b8119cf3d0e,
        type: 3}
      propertyPath: m_LocalPosition.y
      value: -6
      objectReference: {fileID: 0}
    - target: {fileID: 3667741488915099836, guid: 19ca3b7e735975cdda1d4b8119cf3d0e,
        type: 3}
      propertyPath: m_LocalPosition.z
      value: 0
      objectReference: {fileID: 0}
    - target: {fileID: 3667741488915099836, guid: 19ca3b7e735975cdda1d4b8119cf3d0e,
        type: 3}
      propertyPath: m_LocalRotation.w
      value: 1
      objectReference: {fileID: 0}
    - target: {fileID: 3667741488915099836, guid: 19ca3b7e735975cdda1d4b8119cf3d0e,
        type: 3}
      propertyPath: m_LocalRotation.x
      value: -0
      objectReference: {fileID: 0}
    - target: {fileID: 3667741488915099836, guid: 19ca3b7e735975cdda1d4b8119cf3d0e,
        type: 3}
      propertyPath: m_LocalRotation.y
      value: -0
      objectReference: {fileID: 0}
    - target: {fileID: 3667741488915099836, guid: 19ca3b7e735975cdda1d4b8119cf3d0e,
        type: 3}
      propertyPath: m_LocalRotation.z
      value: -0
      objectReference: {fileID: 0}
    - target: {fileID: 3667741488915099836, guid: 19ca3b7e735975cdda1d4b8119cf3d0e,
        type: 3}
      propertyPath: m_LocalEulerAnglesHint.x
      value: 0
      objectReference: {fileID: 0}
    - target: {fileID: 3667741488915099836, guid: 19ca3b7e735975cdda1d4b8119cf3d0e,
        type: 3}
      propertyPath: m_LocalEulerAnglesHint.y
      value: 0
      objectReference: {fileID: 0}
    - target: {fileID: 3667741488915099836, guid: 19ca3b7e735975cdda1d4b8119cf3d0e,
        type: 3}
      propertyPath: m_LocalEulerAnglesHint.z
      value: 0
      objectReference: {fileID: 0}
    - target: {fileID: 5086125213564951401, guid: 19ca3b7e735975cdda1d4b8119cf3d0e,
        type: 3}
      propertyPath: m_Positions.Array.size
      value: 3
      objectReference: {fileID: 0}
    - target: {fileID: 5086125213564951401, guid: 19ca3b7e735975cdda1d4b8119cf3d0e,
        type: 3}
      propertyPath: m_Positions.Array.data[0].x
      value: 7
      objectReference: {fileID: 0}
    - target: {fileID: 5086125213564951401, guid: 19ca3b7e735975cdda1d4b8119cf3d0e,
        type: 3}
      propertyPath: m_Positions.Array.data[0].y
      value: 12
      objectReference: {fileID: 0}
    - target: {fileID: 5086125213564951401, guid: 19ca3b7e735975cdda1d4b8119cf3d0e,
        type: 3}
      propertyPath: m_Positions.Array.data[1].x
      value: 12
      objectReference: {fileID: 0}
    - target: {fileID: 5086125213564951401, guid: 19ca3b7e735975cdda1d4b8119cf3d0e,
        type: 3}
      propertyPath: m_Positions.Array.data[1].y
      value: 6
      objectReference: {fileID: 0}
    - target: {fileID: 5086125213564951401, guid: 19ca3b7e735975cdda1d4b8119cf3d0e,
        type: 3}
      propertyPath: m_Positions.Array.data[2].x
      value: 12
      objectReference: {fileID: 0}
    - target: {fileID: 5086125213564951401, guid: 19ca3b7e735975cdda1d4b8119cf3d0e,
        type: 3}
      propertyPath: m_Positions.Array.data[2].y
      value: 0
      objectReference: {fileID: 0}
    - target: {fileID: 5086125213564951401, guid: 19ca3b7e735975cdda1d4b8119cf3d0e,
        type: 3}
      propertyPath: m_Positions.Array.data[3].x
      value: -5
      objectReference: {fileID: 0}
    - target: {fileID: 5086125213564951401, guid: 19ca3b7e735975cdda1d4b8119cf3d0e,
        type: 3}
      propertyPath: m_Positions.Array.data[3].y
      value: 5
      objectReference: {fileID: 0}
    - target: {fileID: 6015189125723896479, guid: 19ca3b7e735975cdda1d4b8119cf3d0e,
        type: 3}
      propertyPath: m_Points.Array.size
      value: 3
      objectReference: {fileID: 0}
    - target: {fileID: 6015189125723896479, guid: 19ca3b7e735975cdda1d4b8119cf3d0e,
        type: 3}
      propertyPath: m_Points.Array.data[0].x
      value: 7
      objectReference: {fileID: 0}
    - target: {fileID: 6015189125723896479, guid: 19ca3b7e735975cdda1d4b8119cf3d0e,
        type: 3}
      propertyPath: m_Points.Array.data[0].y
      value: 12
      objectReference: {fileID: 0}
    - target: {fileID: 6015189125723896479, guid: 19ca3b7e735975cdda1d4b8119cf3d0e,
        type: 3}
      propertyPath: m_Points.Array.data[1].x
      value: 12
      objectReference: {fileID: 0}
    - target: {fileID: 6015189125723896479, guid: 19ca3b7e735975cdda1d4b8119cf3d0e,
        type: 3}
      propertyPath: m_Points.Array.data[1].y
      value: 6
      objectReference: {fileID: 0}
    - target: {fileID: 6015189125723896479, guid: 19ca3b7e735975cdda1d4b8119cf3d0e,
        type: 3}
      propertyPath: m_Points.Array.data[2].x
      value: 12
      objectReference: {fileID: 0}
    - target: {fileID: 6015189125723896479, guid: 19ca3b7e735975cdda1d4b8119cf3d0e,
        type: 3}
      propertyPath: m_Points.Array.data[2].y
      value: 0
      objectReference: {fileID: 0}
    - target: {fileID: 6015189125723896479, guid: 19ca3b7e735975cdda1d4b8119cf3d0e,
        type: 3}
      propertyPath: m_Points.Array.data[3].x
      value: -5
      objectReference: {fileID: 0}
    - target: {fileID: 6015189125723896479, guid: 19ca3b7e735975cdda1d4b8119cf3d0e,
        type: 3}
      propertyPath: m_Points.Array.data[3].y
      value: 5
      objectReference: {fileID: 0}
    - target: {fileID: 6615061408571887646, guid: 19ca3b7e735975cdda1d4b8119cf3d0e,
        type: 3}
      propertyPath: m_Positions.Array.size
      value: 3
      objectReference: {fileID: 0}
    - target: {fileID: 6615061408571887646, guid: 19ca3b7e735975cdda1d4b8119cf3d0e,
        type: 3}
      propertyPath: m_Positions.Array.data[0].x
      value: 7
      objectReference: {fileID: 0}
    - target: {fileID: 6615061408571887646, guid: 19ca3b7e735975cdda1d4b8119cf3d0e,
        type: 3}
      propertyPath: m_Positions.Array.data[0].y
      value: 12
      objectReference: {fileID: 0}
    - target: {fileID: 6615061408571887646, guid: 19ca3b7e735975cdda1d4b8119cf3d0e,
        type: 3}
      propertyPath: m_Positions.Array.data[1].x
      value: 12
      objectReference: {fileID: 0}
    - target: {fileID: 6615061408571887646, guid: 19ca3b7e735975cdda1d4b8119cf3d0e,
        type: 3}
      propertyPath: m_Positions.Array.data[1].y
      value: 6
      objectReference: {fileID: 0}
    - target: {fileID: 6615061408571887646, guid: 19ca3b7e735975cdda1d4b8119cf3d0e,
        type: 3}
      propertyPath: m_Positions.Array.data[2].x
      value: 12
      objectReference: {fileID: 0}
    - target: {fileID: 6615061408571887646, guid: 19ca3b7e735975cdda1d4b8119cf3d0e,
        type: 3}
      propertyPath: m_Parameters.widthMultiplier
      value: 0.45
      objectReference: {fileID: 0}
    m_RemovedComponents: []
  m_SourcePrefab: {fileID: 100100000, guid: 19ca3b7e735975cdda1d4b8119cf3d0e, type: 3}
--- !u!1001 &8194078610245781652
PrefabInstance:
  m_ObjectHideFlags: 0
  serializedVersion: 2
  m_Modification:
    m_TransformParent: {fileID: 7243973042387460350}
    m_Modifications:
    - target: {fileID: 1957654393695578553, guid: 19ca3b7e735975cdda1d4b8119cf3d0e,
        type: 3}
      propertyPath: m_Enabled
      value: 0
      objectReference: {fileID: 0}
    - target: {fileID: 3667741488915099835, guid: 19ca3b7e735975cdda1d4b8119cf3d0e,
        type: 3}
      propertyPath: m_Name
      value: Wall (14)
      objectReference: {fileID: 0}
    - target: {fileID: 3667741488915099835, guid: 19ca3b7e735975cdda1d4b8119cf3d0e,
        type: 3}
      propertyPath: m_Layer
      value: 3
      objectReference: {fileID: 0}
    - target: {fileID: 3667741488915099836, guid: 19ca3b7e735975cdda1d4b8119cf3d0e,
        type: 3}
      propertyPath: m_RootOrder
      value: 22
      objectReference: {fileID: 0}
    - target: {fileID: 3667741488915099836, guid: 19ca3b7e735975cdda1d4b8119cf3d0e,
        type: 3}
      propertyPath: m_LocalPosition.x
      value: -6
      objectReference: {fileID: 0}
    - target: {fileID: 3667741488915099836, guid: 19ca3b7e735975cdda1d4b8119cf3d0e,
        type: 3}
      propertyPath: m_LocalPosition.y
      value: -6
      objectReference: {fileID: 0}
    - target: {fileID: 3667741488915099836, guid: 19ca3b7e735975cdda1d4b8119cf3d0e,
        type: 3}
      propertyPath: m_LocalPosition.z
      value: 0
      objectReference: {fileID: 0}
    - target: {fileID: 3667741488915099836, guid: 19ca3b7e735975cdda1d4b8119cf3d0e,
        type: 3}
      propertyPath: m_LocalRotation.w
      value: 1
      objectReference: {fileID: 0}
    - target: {fileID: 3667741488915099836, guid: 19ca3b7e735975cdda1d4b8119cf3d0e,
        type: 3}
      propertyPath: m_LocalRotation.x
      value: -0
      objectReference: {fileID: 0}
    - target: {fileID: 3667741488915099836, guid: 19ca3b7e735975cdda1d4b8119cf3d0e,
        type: 3}
      propertyPath: m_LocalRotation.y
      value: -0
      objectReference: {fileID: 0}
    - target: {fileID: 3667741488915099836, guid: 19ca3b7e735975cdda1d4b8119cf3d0e,
        type: 3}
      propertyPath: m_LocalRotation.z
      value: -0
      objectReference: {fileID: 0}
    - target: {fileID: 3667741488915099836, guid: 19ca3b7e735975cdda1d4b8119cf3d0e,
        type: 3}
      propertyPath: m_LocalEulerAnglesHint.x
      value: 0
      objectReference: {fileID: 0}
    - target: {fileID: 3667741488915099836, guid: 19ca3b7e735975cdda1d4b8119cf3d0e,
        type: 3}
      propertyPath: m_LocalEulerAnglesHint.y
      value: 0
      objectReference: {fileID: 0}
    - target: {fileID: 3667741488915099836, guid: 19ca3b7e735975cdda1d4b8119cf3d0e,
        type: 3}
      propertyPath: m_LocalEulerAnglesHint.z
      value: 0
      objectReference: {fileID: 0}
    - target: {fileID: 5086125213564951401, guid: 19ca3b7e735975cdda1d4b8119cf3d0e,
        type: 3}
      propertyPath: m_Positions.Array.size
      value: 2
      objectReference: {fileID: 0}
    - target: {fileID: 5086125213564951401, guid: 19ca3b7e735975cdda1d4b8119cf3d0e,
        type: 3}
      propertyPath: m_Positions.Array.data[0].x
      value: 0
      objectReference: {fileID: 0}
    - target: {fileID: 5086125213564951401, guid: 19ca3b7e735975cdda1d4b8119cf3d0e,
        type: 3}
      propertyPath: m_Positions.Array.data[0].y
      value: 0
      objectReference: {fileID: 0}
    - target: {fileID: 5086125213564951401, guid: 19ca3b7e735975cdda1d4b8119cf3d0e,
        type: 3}
      propertyPath: m_Positions.Array.data[1].x
      value: -4
      objectReference: {fileID: 0}
    - target: {fileID: 5086125213564951401, guid: 19ca3b7e735975cdda1d4b8119cf3d0e,
        type: 3}
      propertyPath: m_Positions.Array.data[1].y
      value: -4
      objectReference: {fileID: 0}
    - target: {fileID: 5086125213564951401, guid: 19ca3b7e735975cdda1d4b8119cf3d0e,
        type: 3}
      propertyPath: m_Positions.Array.data[2].x
      value: -5
      objectReference: {fileID: 0}
    - target: {fileID: 5086125213564951401, guid: 19ca3b7e735975cdda1d4b8119cf3d0e,
        type: 3}
      propertyPath: m_Positions.Array.data[2].y
      value: -1
      objectReference: {fileID: 0}
    - target: {fileID: 5086125213564951401, guid: 19ca3b7e735975cdda1d4b8119cf3d0e,
        type: 3}
      propertyPath: m_Positions.Array.data[3].x
      value: -5
      objectReference: {fileID: 0}
    - target: {fileID: 5086125213564951401, guid: 19ca3b7e735975cdda1d4b8119cf3d0e,
        type: 3}
      propertyPath: m_Positions.Array.data[3].y
      value: 5
      objectReference: {fileID: 0}
    - target: {fileID: 6015189125723896479, guid: 19ca3b7e735975cdda1d4b8119cf3d0e,
        type: 3}
      propertyPath: m_Points.Array.size
      value: 2
      objectReference: {fileID: 0}
    - target: {fileID: 6015189125723896479, guid: 19ca3b7e735975cdda1d4b8119cf3d0e,
        type: 3}
      propertyPath: m_Points.Array.data[0].x
      value: 0
      objectReference: {fileID: 0}
    - target: {fileID: 6015189125723896479, guid: 19ca3b7e735975cdda1d4b8119cf3d0e,
        type: 3}
      propertyPath: m_Points.Array.data[0].y
      value: 0
      objectReference: {fileID: 0}
    - target: {fileID: 6015189125723896479, guid: 19ca3b7e735975cdda1d4b8119cf3d0e,
        type: 3}
      propertyPath: m_Points.Array.data[1].x
      value: -4
      objectReference: {fileID: 0}
    - target: {fileID: 6015189125723896479, guid: 19ca3b7e735975cdda1d4b8119cf3d0e,
        type: 3}
      propertyPath: m_Points.Array.data[1].y
      value: -4
      objectReference: {fileID: 0}
    - target: {fileID: 6015189125723896479, guid: 19ca3b7e735975cdda1d4b8119cf3d0e,
        type: 3}
      propertyPath: m_Points.Array.data[2].x
      value: -5
      objectReference: {fileID: 0}
    - target: {fileID: 6015189125723896479, guid: 19ca3b7e735975cdda1d4b8119cf3d0e,
        type: 3}
      propertyPath: m_Points.Array.data[2].y
      value: -1
      objectReference: {fileID: 0}
    - target: {fileID: 6015189125723896479, guid: 19ca3b7e735975cdda1d4b8119cf3d0e,
        type: 3}
      propertyPath: m_Points.Array.data[3].x
      value: -5
      objectReference: {fileID: 0}
    - target: {fileID: 6015189125723896479, guid: 19ca3b7e735975cdda1d4b8119cf3d0e,
        type: 3}
      propertyPath: m_Points.Array.data[3].y
      value: 5
      objectReference: {fileID: 0}
    - target: {fileID: 6615061408571887646, guid: 19ca3b7e735975cdda1d4b8119cf3d0e,
        type: 3}
      propertyPath: m_Positions.Array.data[0].x
      value: 0
      objectReference: {fileID: 0}
    - target: {fileID: 6615061408571887646, guid: 19ca3b7e735975cdda1d4b8119cf3d0e,
        type: 3}
      propertyPath: m_Positions.Array.data[0].y
      value: 0
      objectReference: {fileID: 0}
    - target: {fileID: 6615061408571887646, guid: 19ca3b7e735975cdda1d4b8119cf3d0e,
        type: 3}
      propertyPath: m_Positions.Array.data[1].x
      value: -4
      objectReference: {fileID: 0}
    - target: {fileID: 6615061408571887646, guid: 19ca3b7e735975cdda1d4b8119cf3d0e,
        type: 3}
      propertyPath: m_Positions.Array.data[1].y
      value: -4
      objectReference: {fileID: 0}
    - target: {fileID: 6615061408571887646, guid: 19ca3b7e735975cdda1d4b8119cf3d0e,
        type: 3}
      propertyPath: m_Parameters.widthMultiplier
      value: 0.45
      objectReference: {fileID: 0}
    m_RemovedComponents: []
  m_SourcePrefab: {fileID: 100100000, guid: 19ca3b7e735975cdda1d4b8119cf3d0e, type: 3}
